spi-multiple/filtered.vcd
$version Generated by VerilatedVcd $end
$date Tue Apr 14 12:32:02 2020
 $end
$timescale   1ns $end

 $scope module TOP $end
  $var wire  1 W cs1 $end
  $var wire  1 X cs2 $end
  $var wire  1 [ miso $end
  $var wire  1 Z mosi $end
  $var wire  1 Y sck $end
 $upscope $end
$enddefinitions $end


#8
1W
1X
0Y
0Z
0[
#10
#15
#18
#20
#25
#28
#30
#35
#38
#40
#45
#48
#50
#55
#58
#60
#65
#68
#70
#75
#78
#80
#85
#88
#90
#95
#98
#100
#105
#108
#110
#115
#118
#120
#125
#128
#130
#135
#138
#140
#145
#148
#150
#155
#158
#160
#165
#168
#170
#175
#178
#180
#185
#188
#190
#195
#198
#200
#205
#208
#210
#215
#218
#220
#225
#228
#230
#235
#238
#240
#245
#248
#250
#255
#258
#260
#265
#268
#270
#275
#278
#280
#285
#288
#290
#295
#298
#300
#305
#308
#310
#315
#318
#320
#325
#328
#330
#335
#338
#340
#345
#348
#350
#355
#358
#360
#365
#368
#370
#375
#378
#380
#385
#388
#390
#395
#398
#400
#405
#408
#410
#415
#418
#420
#425
#428
#430
#435
#438
#440
#445
#448
#450
#455
#458
#460
#465
#468
#470
#475
#478
#480
#485
#488
#490
#495
#498
#500
#505
#508
#510
#515
#518
#520
#525
#528
#530
#535
#538
1Y
#540
#545
#548
0W
#550
#555
#558
#560
#565
#568
#570
#575
#578
#580
#585
#588
#590
#595
#598
#600
#605
#608
#610
#615
#618
#620
#625
#628
#630
#635
#638
#640
#645
#648
#650
#655
#658
#660
#665
#668
#670
#675
#678
#680
#685
#688
#690
#695
#698
#700
#705
#708
0Y
#710
#715
#718
#720
#725
#728
#730
#735
#738
#740
#745
#748
#750
#755
#758
#760
#765
#768
#770
#775
#778
#780
#785
#788
1Y
#790
#795
#798
#800
#805
#808
#810
#815
#818
#820
#825
#828
#830
#835
#838
#840
#845
#848
#850
#855
#858
#860
#865
#868
0Y
#870
#875
#878
#880
#885
#888
#890
#895
#898
#900
#905
#908
#910
#915
#918
#920
#925
#928
#930
#935
#938
#940
#945
#948
1Y
#950
#955
#958
#960
#965
#968
#970
#975
#978
#980
#985
#988
#990
#995
#998
#1000
#1005
#1008
#1010
#1015
#1018
#1020
#1025
#1028
0Y
#1030
#1035
#1038
#1040
#1045
#1048
#1050
#1055
#1058
#1060
#1065
#1068
#1070
#1075
#1078
#1080
#1085
#1088
#1090
#1095
#1098
#1100
#1105
#1108
1Y
#1110
#1115
#1118
#1120
#1125
#1128
#1130
#1135
#1138
#1140
#1145
#1148
#1150
#1155
#1158
#1160
#1165
#1168
#1170
#1175
#1178
#1180
#1185
#1188
0Y
#1190
#1195
#1198
#1200
#1205
#1208
#1210
#1215
#1218
#1220
#1225
#1228
#1230
#1235
#1238
#1240
#1245
#1248
#1250
#1255
#1258
#1260
#1265
#1268
1Y
#1270
#1275
#1278
#1280
#1285
#1288
#1290
#1295
#1298
#1300
#1305
#1308
#1310
#1315
#1318
#1320
#1325
#1328
#1330
#1335
#1338
#1340
#1345
#1348
0Y
1Z
#1350
#1355
#1358
#1360
#1365
#1368
#1370
#1375
#1378
#1380
#1385
#1388
#1390
#1395
#1398
#1400
#1405
#1408
#1410
#1415
#1418
#1420
#1425
#1428
1Y
#1430
#1435
#1438
#1440
#1445
#1448
#1450
#1455
#1458
#1460
#1465
#1468
#1470
#1475
#1478
#1480
#1485
#1488
#1490
#1495
#1498
#1500
#1505
#1508
0Y
#1510
#1515
#1518
#1520
#1525
#1528
#1530
#1535
#1538
#1540
#1545
#1548
#1550
#1555
#1558
#1560
#1565
#1568
#1570
#1575
#1578
#1580
#1585
#1588
1Y
#1590
#1595
#1598
#1600
#1605
#1608
#1610
#1615
#1618
#1620
#1625
#1628
#1630
#1635
#1638
#1640
#1645
#1648
#1650
#1655
#1658
#1660
#1665
#1668
0Y
#1670
#1675
#1678
#1680
#1685
#1688
#1690
#1695
#1698
#1700
#1705
#1708
#1710
#1715
#1718
#1720
#1725
#1728
#1730
#1735
#1738
#1740
#1745
#1748
1Y
#1750
#1755
#1758
#1760
#1765
#1768
#1770
#1775
#1778
#1780
#1785
#1788
#1790
#1795
#1798
#1800
#1805
#1808
#1810
#1815
#1818
#1820
#1825
#1828
0Y
#1830
#1835
#1838
#1840
#1845
#1848
#1850
#1855
#1858
#1860
#1865
#1868
#1870
#1875
#1878
#1880
#1885
#1888
#1890
#1895
#1898
#1900
#1905
#1908
1Y
#1910
#1915
#1918
#1920
#1925
#1928
#1930
#1935
#1938
#1940
#1945
#1948
#1950
#1955
#1958
#1960
#1965
#1968
#1970
#1975
#1978
#1980
#1985
#1988
0Y
#1990
#1995
#1998
#2000
#2005
#2008
#2010
#2015
#2018
#2020
#2025
#2028
#2030
#2035
#2038
#2040
#2045
#2048
#2050
#2055
#2058
#2060
#2065
#2068
1Y
#2070
#2075
#2078
#2080
#2085
#2088
#2090
#2095
#2098
#2100
#2105
#2108
#2110
#2115
#2118
#2120
#2125
#2128
#2130
#2135
#2138
#2140
#2145
#2148
0Y
#2150
#2155
#2158
#2160
#2165
#2168
#2170
#2175
#2178
#2180
#2185
#2188
#2190
#2195
#2198
#2200
#2205
#2208
#2210
#2215
#2218
#2220
#2225
#2228
1Y
#2230
#2235
#2238
#2240
#2245
#2248
#2250
#2255
#2258
#2260
#2265
#2268
#2270
#2275
#2278
#2280
#2285
#2288
#2290
#2295
#2298
#2300
#2305
#2308
0Y
1[
#2310
#2315
#2318
#2320
#2325
#2328
#2330
#2335
#2338
#2340
#2345
#2348
#2350
#2355
#2358
#2360
#2365
#2368
#2370
#2375
#2378
#2380
#2385
#2388
1Y
#2390
#2395
#2398
#2400
#2405
#2408
#2410
#2415
#2418
#2420
#2425
#2428
#2430
#2435
#2438
#2440
#2445
#2448
#2450
#2455
#2458
#2460
#2465
#2468
0Y
#2470
#2475
#2478
#2480
#2485
#2488
#2490
#2495
#2498
#2500
#2505
#2508
#2510
#2515
#2518
#2520
#2525
#2528
#2530
#2535
#2538
#2540
#2545
#2548
1Y
#2550
#2555
#2558
#2560
#2565
#2568
#2570
#2575
#2578
#2580
#2585
#2588
#2590
#2595
#2598
#2600
#2605
#2608
#2610
#2615
#2618
#2620
#2625
#2628
0Y
0[
#2630
#2635
#2638
#2640
#2645
#2648
#2650
#2655
#2658
#2660
#2665
#2668
#2670
#2675
#2678
#2680
#2685
#2688
#2690
#2695
#2698
#2700
#2705
#2708
1Y
#2710
#2715
#2718
#2720
#2725
#2728
#2730
#2735
#2738
#2740
#2745
#2748
#2750
#2755
#2758
#2760
#2765
#2768
#2770
#2775
#2778
#2780
#2785
#2788
0Y
1[
#2790
#2795
#2798
#2800
#2805
#2808
#2810
#2815
#2818
#2820
#2825
#2828
#2830
#2835
#2838
#2840
#2845
#2848
#2850
#2855
#2858
#2860
#2865
#2868
1Y
#2870
#2875
#2878
#2880
#2885
#2888
#2890
#2895
#2898
#2900
#2905
#2908
#2910
#2915
#2918
#2920
#2925
#2928
#2930
#2935
#2938
#2940
#2945
#2948
0Y
0[
#2950
#2955
#2958
#2960
#2965
#2968
#2970
#2975
#2978
#2980
#2985
#2988
#2990
#2995
#2998
#3000
#3005
#3008
#3010
#3015
#3018
#3020
#3025
#3028
1Y
#3030
#3035
#3038
#3040
#3045
#3048
#3050
#3055
#3058
#3060
#3065
#3068
#3070
#3075
#3078
#3080
#3085
#3088
#3090
#3095
#3098
#3100
#3105
#3108
0Y
1[
#3110
#3115
#3118
#3120
#3125
#3128
#3130
#3135
#3138
#3140
#3145
#3148
#3150
#3155
#3158
#3160
#3165
#3168
#3170
#3175
#3178
#3180
#3185
#3188
1Y
#3190
#3195
#3198
#3200
#3205
#3208
#3210
#3215
#3218
#3220
#3225
#3228
#3230
#3235
#3238
#3240
#3245
#3248
#3250
#3255
#3258
#3260
#3265
#3268
1W
0[
#3270
#3275
#3278
0X
